# Blender v2.93.5 OBJ File: ''
# www.blender.org
mtllib bull_head.mtl
o _Charging_Bull_Statue_of_Wall_Street.001_Mesh.001
v 0.174493 1.352802 2.686552
v 0.098218 1.389900 2.724907
v 0.108276 1.281733 2.804005
v 0.171500 1.258911 2.791081
v 0.118977 1.113793 2.902778
v 0.174039 1.506745 2.577608
v 0.213835 1.240133 2.702362
v 0.147550 1.109161 2.896467
v 0.186299 1.655762 2.498006
v 0.085270 1.525054 2.613439
v 0.232559 1.841449 2.423737
v 0.078148 1.683491 2.534319
v 0.077928 1.876799 2.472916
v 0.210098 1.939250 2.333448
v 0.063555 1.963207 2.363535
v 0.268070 1.211273 2.564892
v 0.218692 1.301054 2.625123
v 0.251738 1.150054 2.654603
v 0.249406 1.492191 2.505920
v 0.272951 1.390741 2.521382
v 0.313065 1.311624 2.432293
v 0.260029 1.589704 2.452696
v 0.293612 1.697488 2.372980
v 0.357236 1.502855 2.373726
v 0.326204 1.624017 2.298830
v 0.330311 1.405032 2.463889
v 0.290202 1.481269 2.471365
v 0.310121 1.513104 2.433149
v 0.279432 1.129044 2.509924
v 0.264928 1.098311 2.566376
v 0.254364 1.108895 2.727447
v 0.324361 1.218046 2.354500
v 0.253954 1.047453 2.487826
v 0.307390 1.112329 2.290375
v 0.199151 0.980698 2.472241
v 0.190032 0.950574 2.587675
v 0.219635 0.974754 2.584749
v 0.193115 0.954684 2.604936
v 0.245618 1.022229 2.239736
v 0.143028 0.947679 2.464923
v 0.151879 0.913985 2.610632
v 0.161502 0.979664 2.203211
v 0.309314 1.333870 2.449664
v 0.326488 1.338666 2.375615
v 0.322685 1.169598 2.214586
v 0.275999 1.092213 2.146633
v 0.189798 1.063608 2.082379
v 0.323342 1.355314 2.395615
v 0.355730 1.466631 2.295231
v 0.356030 1.459448 2.271206
v 0.334113 1.542197 2.257949
v 0.328407 1.537552 2.232497
v 0.336390 1.265010 2.295640
v 0.358577 1.378731 2.106270
v 0.359520 1.425402 2.191762
v 0.337964 1.335308 2.019915
v 0.300030 1.293058 1.943405
v 0.341050 1.518826 2.075436
v 0.345850 1.516426 2.003164
v 0.349794 1.507737 1.935694
v 0.329113 1.521909 2.156090
v 0.182112 1.954665 2.141949
v 0.221823 1.865341 1.998348
v 0.205768 1.960141 1.793671
v 0.132204 2.015515 1.863848
v 0.059701 2.047710 1.880898
v 0.322334 1.845205 1.753047
v 0.300959 1.766686 1.893500
v 0.407091 1.610785 1.687904
v 0.369846 1.542112 1.844379
v 0.434716 1.446975 1.663445
v 0.365155 1.376413 1.819151
v 0.386303 1.271049 1.645307
v 0.305998 1.244402 1.790340
v 0.090933 0.936807 2.461676
v 0.110397 0.886172 2.627381
v 0.116681 0.886234 2.683726
v 0.055822 0.952399 2.186687
v 0.017904 0.985545 2.047880
v 0.157880 1.070225 1.970703
v 0.082167 1.002221 1.974275
v 0.250088 1.201299 1.908308
v 0.332429 1.587892 2.149262
v 0.321082 1.600587 2.215185
v 0.308249 1.606901 2.234411
v 0.228848 1.118254 1.797411
v 0.159206 1.031685 1.785062
v 0.199127 0.991930 1.602563
v 0.306032 1.121819 1.623244
v 0.062701 0.934416 1.760185
v -0.032016 0.916338 1.805140
v 0.061441 0.855662 1.584198
v -0.083507 0.818641 1.598369
v -0.039286 0.986771 2.063979
v 0.297574 1.749951 1.956273
v 0.261620 1.815920 2.025619
v -0.018243 0.953383 2.193376
v 0.030247 0.937997 2.470215
v 0.056089 0.878889 2.642087
v 0.337629 1.418782 2.469541
v 0.348256 1.434448 2.440425
v 0.327618 1.437295 2.473048
v 0.329659 1.478609 2.431948
v 0.310119 1.438380 2.473741
v 0.340299 1.459816 2.442460
v 0.351962 1.484920 2.377481
v 0.342079 1.422605 2.426232
v 0.323078 1.846813 2.343859
v 0.304773 1.904503 2.291367
v 0.281768 1.896362 2.193246
v 0.335475 1.736089 2.314053
v 0.283120 1.844155 2.092623
v 0.304796 1.822249 2.059314
v 0.341962 1.742579 2.034658
v 0.315723 1.743098 2.007375
v 0.326087 1.636239 2.076983
v 0.300193 1.689830 2.243832
v 0.318462 1.627924 2.218813
v 0.743455 2.191980 2.300568
v 0.663258 2.118064 2.261176
v 0.681875 2.100393 2.295410
v 0.744364 2.204914 2.249489
v 0.716448 2.217314 2.254751
v 0.721782 2.078588 2.293059
v 0.625192 2.012412 2.298164
v 0.596490 2.036494 2.248736
v 0.719534 2.096021 2.211123
v 0.678604 2.117162 2.220280
v 0.606500 1.881602 2.294669
v 0.678686 1.978004 2.292574
v 0.546670 1.932789 2.301377
v 0.511271 1.959247 2.240769
v 0.596381 1.884473 2.146156
v 0.674000 1.995725 2.172842
v 0.525616 1.942562 2.159327
v 0.615331 2.031991 2.186809
v 0.558659 1.835559 2.304827
v 0.500100 1.903056 2.315595
v 0.460520 1.937319 2.248808
v 0.571989 1.819969 2.152830
v 0.511502 1.887458 2.126252
v 0.546877 1.854287 2.119304
v 0.462759 1.923435 2.168320
v 0.469548 1.881468 2.125796
v 0.478740 1.758762 2.281082
v 0.482445 1.725124 2.179567
v 0.512358 1.746623 2.169533
v 0.404732 1.860481 2.330754
v 0.437984 1.749668 2.293094
v 0.373616 1.906201 2.272220
v 0.363368 1.902576 2.185318
v 0.371772 1.858757 2.112880
v 0.507343 1.873560 2.107974
v 0.504727 1.691864 2.074902
v 0.529221 1.733764 2.061706
v 0.566715 1.825824 2.049482
v 0.576171 1.859703 2.048326
v 0.468600 1.875121 2.103827
v 0.376783 1.855479 2.080226
v 0.477166 1.650431 2.092537
v 0.400322 1.597907 2.125635
v 0.444084 1.708022 2.193314
v 0.365060 1.700296 2.213587
v 0.376102 1.733122 2.293179
v 0.427985 1.699190 2.071444
v 0.449074 1.730492 2.062476
v 0.379948 1.663679 2.078768
v 0.472621 1.767159 2.053326
v 0.509406 1.850396 2.047693
v 0.517707 1.888437 2.047540
v 0.480162 1.880810 2.048427
v 0.479005 1.849823 2.047491
v 0.403910 1.814980 2.047738
v 0.390556 1.758620 2.050863
v 0.416553 1.802531 2.048455
v 0.428639 1.747216 2.054965
v 0.449188 1.780641 2.049773
v 0.132912 0.894440 2.756693
v 0.065480 0.873301 2.699084
v 0.147220 0.918399 2.665341
v 0.104149 0.983109 2.875959
v 0.166575 0.982722 2.851706
v 0.093714 0.959299 2.826414
v 0.208788 0.999253 2.803344
v 0.238507 1.026348 2.744150
v 0.250376 1.058229 2.695332
v 0.253232 1.071534 2.655073
v 0.200769 1.024541 2.656056
v 0.249867 1.053193 2.626652
v 0.218655 0.997083 2.631234
v 0.195309 1.010017 2.668946
v 0.208851 0.978316 2.649479
v 0.163401 0.919451 2.726025
v 0.161789 0.952472 2.746474
v 0.082798 0.941402 2.771067
v 0.079444 0.892834 2.772123
v 0.128578 0.940617 2.768646
v 0.085389 0.988996 2.768094
v 0.137889 0.967839 2.802663
v 0.120063 0.987296 2.757693
v 0.171448 0.983908 2.768516
v 0.146721 0.987621 2.747406
v 0.198794 0.999861 2.725548
v 0.156980 0.972756 2.742427
v 0.206321 1.023518 2.682360
v 0.202190 1.016217 2.683503
v 0.122223 0.964904 2.749787
v 0.082284 0.967732 2.757982
v 0.220770 1.118653 2.849000
v 0.198630 1.116112 2.894447
v 0.214426 1.203303 2.831770
v 0.212397 1.151788 2.826754
v 0.237624 1.197746 2.779133
v 0.213737 1.148232 2.800397
v -0.117622 0.934704 1.815217
v -0.189384 0.849803 1.603845
v -0.281408 0.925420 1.593138
v -0.209672 0.989388 1.785116
v -0.359771 1.032580 1.578475
v -0.281464 1.073857 1.778735
v -0.415679 1.175583 1.615398
v -0.335100 1.170520 1.806243
v -0.475252 1.316595 1.671752
v -0.406530 1.292187 1.856948
v -0.474075 1.479911 1.725364
v -0.395799 1.417520 1.889221
v -0.392771 1.605814 1.847666
v -0.351784 1.572093 1.951006
v -0.296425 1.726922 2.018194
v -0.350911 1.767982 1.865559
v -0.291876 1.928728 1.901244
v -0.233448 1.865005 2.068838
v -0.120915 1.941902 2.095429
v -0.170647 2.015613 1.901931
v 0.026181 1.975229 2.135391
v -0.023483 2.054644 1.895924
v 0.013325 1.362371 2.706927
v 0.043442 1.267619 2.806399
v -0.050016 1.317517 2.664929
v -0.023803 1.253272 2.735986
v -0.010109 1.520067 2.609261
v -0.037045 1.672927 2.536247
v -0.085823 1.950680 2.374560
v -0.087273 1.862352 2.472174
v -0.191151 1.922843 2.364254
v -0.121385 1.234055 2.626396
v -0.125452 1.414861 2.588102
v -0.103547 1.521187 2.570723
v -0.129660 1.626402 2.520026
v -0.191605 1.719559 2.455667
v -0.225036 1.735213 2.355075
v -0.152678 1.526969 2.548686
v -0.171294 1.469326 2.554968
v -0.186486 1.593590 2.506368
v -0.205275 1.527027 2.516216
v -0.124768 1.125608 2.629222
v -0.156225 1.158599 2.579607
v -0.080436 1.168938 2.705501
v -0.065791 1.127987 2.773356
v -0.238472 1.251677 2.446641
v -0.150148 1.080103 2.554917
v -0.103195 0.999804 2.640421
v -0.116325 1.008844 2.526827
v -0.073989 0.975790 2.633592
v -0.073369 0.977703 2.651104
v -0.073379 0.968126 2.503529
v -0.033273 0.938327 2.642696
v -0.185460 1.358036 2.538013
v -0.212895 1.380954 2.491859
v -0.195390 1.337530 2.520638
v -0.264503 1.299276 2.394932
v -0.255119 1.151877 2.383370
v -0.229354 1.059420 2.320943
v -0.174618 1.004894 2.260486
v -0.210129 1.435963 2.522270
v -0.223033 1.365940 2.471986
v -0.241869 1.513438 2.465668
v -0.265517 1.495902 2.403214
v -0.273792 1.489399 2.378645
v -0.253196 1.556568 2.469788
v -0.250369 1.570005 2.356317
v -0.253059 1.565328 2.327989
v -0.287707 1.209448 2.316072
v -0.277739 1.138195 2.241417
v -0.249758 1.120702 2.135807
v -0.304358 1.458837 2.300146
v -0.326820 1.410336 2.223572
v -0.327019 1.358152 2.147364
v -0.347048 1.330402 2.022122
v -0.300863 1.547384 2.184390
v -0.308732 1.544976 2.121377
v -0.320797 1.540711 2.043965
v -0.277759 1.551781 2.253076
v -0.174168 1.919251 2.252796
v -0.098942 1.945839 2.214350
v -0.141605 1.914918 2.177139
v -0.248639 1.096749 1.934234
v -0.292255 1.668751 2.184052
v -0.161562 1.025053 1.943577
v -0.254176 1.570618 2.477812
v -0.192495 1.467580 2.550745
v -0.213334 1.491309 2.521301
v -0.195641 1.443874 2.567956
v -0.216178 1.458764 2.544744
v -0.186388 1.414707 2.552603
v -0.197217 1.874291 2.420305
v -0.230254 1.766527 2.404753
v -0.247018 1.868566 2.184583
v -0.278735 1.850584 2.155149
v -0.298156 1.826801 2.145530
v -0.275927 1.809852 2.125145
v -0.251884 1.826951 2.113263
v -0.304508 1.745309 2.159344
v -0.277020 1.726620 2.118959
v -0.220279 1.668480 2.313589
v -0.240109 1.682228 2.300479
v -0.259800 1.630876 2.310309
v -0.295892 1.618324 2.251186
v -0.588400 2.235392 2.503063
v -0.598541 2.243356 2.472079
v -0.535023 2.193125 2.494705
v -0.545374 2.248143 2.503212
v -0.528519 2.207183 2.461134
v -0.539412 2.259927 2.476567
v -0.590168 2.175472 2.495470
v -0.591069 2.194272 2.436965
v -0.602152 2.185150 2.454292
v -0.552951 2.208352 2.432575
v -0.496677 2.094604 2.479497
v -0.486062 2.113401 2.430089
v -0.571119 2.064353 2.476153
v -0.589211 2.074202 2.417745
v -0.574816 2.087839 2.392125
v -0.520090 2.112565 2.385553
v -0.416803 1.983917 2.452975
v -0.401778 2.004528 2.387885
v -0.508423 1.926392 2.447259
v -0.533518 1.928945 2.368755
v -0.514979 1.943334 2.328500
v -0.440636 1.990938 2.318939
v -0.371163 1.949031 2.450851
v -0.353929 1.975822 2.378677
v -0.466919 1.870936 2.440812
v -0.499441 1.868846 2.361952
v -0.441458 1.934030 2.283319
v -0.470988 1.902118 2.285981
v -0.476493 1.872281 2.289734
v -0.381416 1.964127 2.307066
v -0.404707 1.923435 2.270105
v -0.402231 1.808163 2.416156
v -0.433294 1.791472 2.359107
v -0.278750 1.898517 2.438311
v -0.333437 1.789745 2.421850
v -0.265536 1.936933 2.371782
v -0.284526 1.932126 2.289683
v -0.320159 1.891081 2.226662
v -0.453853 1.801753 2.293439
v -0.444497 1.911932 2.262996
v -0.505242 1.873050 2.268167
v -0.510125 1.908477 2.264567
v -0.457232 1.937024 2.246887
v -0.472479 1.794101 2.273918
v -0.491144 1.790634 2.231840
v -0.519428 1.880877 2.227842
v -0.412194 1.912687 2.247490
v -0.336022 1.890492 2.196129
v -0.429016 1.709446 2.291411
v -0.393271 1.737157 2.300967
v -0.346151 1.642771 2.317366
v -0.309126 1.699952 2.295906
v -0.444818 1.700209 2.243104
v -0.373587 1.626561 2.247707
v -0.364748 1.756088 2.358653
v -0.291558 1.742376 2.353132
v -0.276782 1.765272 2.402993
v -0.402886 1.742496 2.204703
v -0.357697 1.702163 2.198908
v -0.443269 1.815400 2.201008
v -0.470371 1.899386 2.206639
v -0.420288 1.928790 2.231500
v -0.442867 1.896488 2.197491
v -0.350454 1.882641 2.178401
v -0.388235 1.844863 2.179940
v -0.397196 1.774011 2.192741
v -0.362431 1.765228 2.182130
v -0.420915 1.826621 2.191265
v -0.273391 1.716179 2.080326
v -0.011671 0.941482 2.691127
v -0.004584 0.941011 2.745952
v -0.061217 1.001569 2.685875
v -0.109371 1.078480 2.687250
v -0.101544 1.092970 2.715595
v -0.085933 1.077482 2.751393
v -0.059581 1.045371 2.792641
v -0.015198 1.014857 2.839372
v 0.037013 1.131045 2.914864
v 0.003996 0.989857 2.797210
v -0.029252 1.017988 2.763798
v -0.048891 1.044081 2.725964
v -0.040141 1.031372 2.705434
v -0.052690 1.046018 2.697864
v -0.074470 1.022249 2.669610
v 0.005984 0.969398 2.763540
v -0.042937 1.037696 2.724835
v 0.010538 0.986751 2.764100
v 0.006312 1.134407 2.888762
v -0.002991 1.184196 2.857604
v 0.013740 1.214124 2.851840
v -0.022156 1.210245 2.811159
v -0.025826 1.178284 2.832843
v 0.021530 0.995238 2.772666
v -0.212315 1.866760 2.132421
v 0.718159 2.204331 2.302249
v 0.747305 2.301724 2.300854
v 0.704483 2.216788 2.281417
v -0.567740 2.361240 2.511912
v -0.590030 2.250434 2.458566
v -0.559994 2.261080 2.454593
vt 0.190600 0.668900
vt 0.198100 0.685300
vt 0.185900 0.689100
vt 0.182400 0.672500
vt 0.181600 0.645900
vt 0.178100 0.646200
vt 0.186400 0.714200
vt 0.199400 0.710700
vt 0.204300 0.670100
vt 0.210200 0.680900
vt 0.215300 0.691000
vt 0.208300 0.707600
vt 0.203700 0.734800
vt 0.189400 0.739500
vt 0.216200 0.725000
vt 0.216500 0.758500
vt 0.198600 0.769300
vt 0.231100 0.739300
vt 0.224600 0.774300
vt 0.211400 0.787400
vt 0.230900 0.758100
vt 0.237400 0.746500
vt 0.234500 0.766800
vt 0.216000 0.659800
vt 0.224500 0.671100
vt 0.224400 0.700500
vt 0.219800 0.703700
vt 0.238300 0.688600
vt 0.235300 0.690600
vt 0.231800 0.699700
vt 0.225100 0.713000
vt 0.240300 0.714500
vt 0.244100 0.733200
vt 0.248100 0.742800
vt 0.229000 0.708500
vt 0.229700 0.656200
vt 0.235600 0.662700
vt 0.223700 0.646200
vt 0.219700 0.647000
vt 0.208800 0.651400
vt 0.214700 0.643900
vt 0.251600 0.680800
vt 0.234400 0.638300
vt 0.242500 0.652700
vt 0.226600 0.637700
vt 0.263600 0.670800
vt 0.236000 0.633600
vt 0.248800 0.642400
vt 0.233700 0.633300
vt 0.226600 0.634100
vt 0.274500 0.660400
vt 0.236100 0.626200
vt 0.253300 0.634800
vt 0.229800 0.623100
vt 0.283900 0.652000
vt 0.236200 0.702900
vt 0.241800 0.695400
vt 0.244800 0.694200
vt 0.270800 0.680700
vt 0.257400 0.688900
vt 0.282700 0.672000
vt 0.294900 0.666000
vt 0.240500 0.712400
vt 0.250800 0.713400
vt 0.253900 0.713500
vt 0.252500 0.724600
vt 0.255800 0.725100
vt 0.277000 0.710200
vt 0.264800 0.712500
vt 0.289500 0.708000
vt 0.302600 0.704900
vt 0.284500 0.731400
vt 0.275700 0.728800
vt 0.292900 0.733200
vt 0.265700 0.726100
vt 0.245300 0.771500
vt 0.246700 0.787300
vt 0.405800 0.085000
vt 0.403300 0.099000
vt 0.389700 0.092000
vt 0.391100 0.069300
vt 0.270400 0.780600
vt 0.259700 0.770000
vt 0.425800 0.092200
vt 0.425100 0.103000
vt 0.457100 0.084800
vt 0.458000 0.098200
vt 0.479100 0.091600
vt 0.477500 0.076100
vt 0.498800 0.079900
vt 0.494200 0.066100
vt 0.236900 0.619500
vt 0.257100 0.628800
vt 0.230200 0.617000
vt 0.291900 0.641000
vt 0.310900 0.645700
vt 0.314800 0.658000
vt 0.307900 0.667200
vt 0.312800 0.695200
vt 0.312200 0.722800
vt 0.302700 0.741300
vt 0.321200 0.707200
vt 0.281000 0.764100
vt 0.274800 0.760400
vt 0.288400 0.768000
vt 0.270700 0.743400
vt 0.270900 0.758000
vt 0.264000 0.734800
vt 0.255800 0.733800
vt 0.252700 0.733800
vt 0.328900 0.694900
vt 0.336600 0.681800
vt 0.507500 0.057800
vt 0.520600 0.048200
vt 0.532700 0.056200
vt 0.516300 0.069200
vt 0.344900 0.665100
vt 0.352000 0.646600
vt 0.549800 0.040900
vt 0.534000 0.034200
vt 0.543900 0.016600
vt 0.564700 0.020600
vt 0.269600 0.771900
vt 0.265100 0.767200
vt 0.295600 0.632400
vt 0.311600 0.638400
vt 0.260300 0.621500
vt 0.238700 0.612400
vt 0.231600 0.609900
vt 0.231100 0.701300
vt 0.225600 0.700500
vt 0.234600 0.704100
vt 0.229700 0.707500
vt 0.254200 0.736800
vt 0.581600 0.482700
vt 0.595000 0.487100
vt 0.594800 0.490700
vt 0.580500 0.488900
vt 0.595200 0.494300
vt 0.580500 0.494700
vt 0.588100 0.471200
vt 0.599500 0.480400
vt 0.581000 0.500600
vt 0.595500 0.498100
vt 0.596100 0.502100
vt 0.582300 0.506800
vt 0.566500 0.486900
vt 0.568900 0.478600
vt 0.565600 0.494900
vt 0.577100 0.462100
vt 0.566400 0.503300
vt 0.569600 0.512200
vt 0.554800 0.474300
vt 0.551200 0.485000
vt 0.549100 0.495400
vt 0.562700 0.452900
vt 0.555000 0.518800
vt 0.549600 0.507100
vt 0.535500 0.464300
vt 0.547000 0.472200
vt 0.543600 0.483600
vt 0.529800 0.481600
vt 0.530300 0.465000
vt 0.541200 0.494700
vt 0.528300 0.491900
vt 0.554100 0.452000
vt 0.542000 0.450600
vt 0.544900 0.514500
vt 0.547700 0.520200
vt 0.561000 0.837400
vt 0.558500 0.847000
vt 0.558000 0.446300
vt 0.558300 0.850100
vt 0.541000 0.505500
vt 0.527500 0.503100
vt 0.539700 0.513400
vt 0.527100 0.514000
vt 0.537200 0.450500
vt 0.518700 0.481300
vt 0.517100 0.466400
vt 0.522500 0.464000
vt 0.531600 0.451000
vt 0.518500 0.490500
vt 0.516700 0.502100
vt 0.515500 0.515700
vt 0.563300 0.832300
vt 0.543100 0.517500
vt 0.557500 0.861600
vt 0.550000 0.854800
vt 0.563000 0.854000
vt 0.538800 0.516500
vt 0.527200 0.518300
vt 0.517300 0.521100
vt 0.566200 0.827100
vt 0.572800 0.817200
vt 0.521400 0.452800
vt 0.512400 0.455300
vt 0.565400 0.799600
vt 0.569200 0.801100
vt 0.577600 0.809300
vt 0.574200 0.832400
vt 0.579500 0.826400
vt 0.572000 0.836700
vt 0.585700 0.820500
vt 0.569400 0.841200
vt 0.565000 0.850200
vt 0.566700 0.854900
vt 0.564800 0.863000
vt 0.577700 0.848900
vt 0.579500 0.857700
vt 0.568200 0.851200
vt 0.572500 0.843200
vt 0.576400 0.846800
vt 0.587000 0.839200
vt 0.589700 0.853100
vt 0.580000 0.840900
vt 0.575000 0.839000
vt 0.220700 0.614600
vt 0.221700 0.607400
vt 0.221900 0.621100
vt 0.193400 0.648400
vt 0.208100 0.638300
vt 0.187300 0.647200
vt 0.199000 0.632400
vt 0.188800 0.629200
vt 0.178300 0.628400
vt 0.622600 0.805200
vt 0.625500 0.813100
vt 0.617300 0.815300
vt 0.616800 0.807300
vt 0.628000 0.801700
vt 0.632100 0.808100
vt 0.634500 0.797900
vt 0.638700 0.803800
vt 0.640700 0.795500
vt 0.645700 0.801200
vt 0.650300 0.797500
vt 0.642700 0.792800
vt 0.651100 0.792800
vt 0.643500 0.787300
vt 0.640200 0.792800
vt 0.639800 0.787500
vt 0.628000 0.787500
vt 0.626800 0.792600
vt 0.615900 0.792100
vt 0.615300 0.785500
vt 0.622200 0.785300
vt 0.621600 0.791500
vt 0.616300 0.799100
vt 0.621500 0.798400
vt 0.625600 0.797700
vt 0.626900 0.795400
vt 0.639800 0.794900
vt 0.621700 0.795300
vt 0.616000 0.795900
vt 0.194800 0.653100
vt 0.192000 0.659200
vt 0.197700 0.653300
vt 0.198900 0.660700
vt 0.353400 0.635000
vt 0.186900 0.025100
vt 0.184100 0.011600
vt 0.204300 0.004900
vt 0.206900 0.016300
vt 0.196300 0.038400
vt 0.216600 0.027100
vt 0.209800 0.051500
vt 0.223900 0.040700
vt 0.225000 0.062900
vt 0.235300 0.050400
vt 0.243400 0.071200
vt 0.251200 0.058400
vt 0.264500 0.075900
vt 0.267700 0.062000
vt 0.286300 0.065200
vt 0.282600 0.073100
vt 0.307600 0.070800
vt 0.303300 0.080700
vt 0.332700 0.075400
vt 0.329400 0.085500
vt 0.342400 0.088800
vt 0.345500 0.077700
vt 0.238200 0.806600
vt 0.371300 0.072700
vt 0.367400 0.091000
vt 0.378500 0.091800
vt 0.154600 0.684200
vt 0.163500 0.668400
vt 0.171600 0.672000
vt 0.166400 0.688300
vt 0.162700 0.659100
vt 0.168400 0.647400
vt 0.163900 0.713200
vt 0.151500 0.709300
vt 0.143300 0.679200
vt 0.150100 0.668700
vt 0.141900 0.705200
vt 0.137700 0.688700
vt 0.159100 0.738100
vt 0.145000 0.733000
vt 0.134200 0.722000
vt 0.147800 0.767100
vt 0.130300 0.755900
vt 0.118100 0.735300
vt 0.133200 0.784300
vt 0.120900 0.770600
vt 0.116300 0.754500
vt 0.111300 0.742600
vt 0.112000 0.762100
vt 0.130100 0.668600
vt 0.139500 0.658000
vt 0.133800 0.700700
vt 0.131000 0.699200
vt 0.118700 0.686300
vt 0.115700 0.684300
vt 0.121400 0.693100
vt 0.127500 0.709100
vt 0.112500 0.714700
vt 0.105100 0.739600
vt 0.098400 0.718900
vt 0.111200 0.713200
vt 0.096200 0.734800
vt 0.098700 0.732600
vt 0.125400 0.706600
vt 0.120000 0.660000
vt 0.126500 0.654000
vt 0.132900 0.645500
vt 0.137100 0.646300
vt 0.142000 0.643100
vt 0.146800 0.650100
vt 0.102600 0.676200
vt 0.114500 0.650100
vt 0.124300 0.636800
vt 0.131600 0.636700
vt 0.091700 0.666100
vt 0.109400 0.639800
vt 0.123000 0.632100
vt 0.125300 0.632000
vt 0.131600 0.633000
vt 0.082300 0.655400
vt 0.105800 0.632100
vt 0.123600 0.624900
vt 0.129900 0.622500
vt 0.074000 0.646600
vt 0.116500 0.696500
vt 0.112000 0.690400
vt 0.108900 0.689200
vt 0.096200 0.683700
vt 0.083700 0.675200
vt 0.073200 0.666100
vt 0.062000 0.659500
vt 0.110000 0.707800
vt 0.101400 0.707700
vt 0.098000 0.707700
vt 0.094800 0.719300
vt 0.086700 0.706300
vt 0.074900 0.703400
vt 0.063100 0.700600
vt 0.047600 0.695700
vt 0.074200 0.721900
vt 0.065600 0.723800
vt 0.057900 0.723600
vt 0.084300 0.719800
vt 0.102000 0.780500
vt 0.101100 0.766200
vt 0.091500 0.775500
vt 0.099900 0.618200
vt 0.122200 0.610800
vt 0.129500 0.609000
vt 0.063300 0.627100
vt 0.046800 0.633100
vt 0.048400 0.659900
vt 0.042400 0.651400
vt 0.072500 0.745600
vt 0.066900 0.744900
vt 0.079500 0.745800
vt 0.079600 0.737700
vt 0.085500 0.729400
vt 0.093700 0.728800
vt 0.127700 0.696700
vt 0.122600 0.697000
vt 0.123500 0.703000
vt 0.119100 0.699200
vt 0.081300 0.757200
vt 0.077900 0.758000
vt 0.083400 0.759700
vt 0.077400 0.762100
vt 0.674100 0.819500
vt 0.666800 0.820400
vt 0.666000 0.814300
vt 0.672600 0.811400
vt 0.666500 0.824200
vt 0.674000 0.824300
vt 0.663500 0.810500
vt 0.669500 0.806400
vt 0.661800 0.809100
vt 0.667500 0.804200
vt 0.666400 0.828100
vt 0.673800 0.829300
vt 0.673000 0.834600
vt 0.665900 0.832200
vt 0.688400 0.817300
vt 0.684900 0.806200
vt 0.689000 0.824300
vt 0.681100 0.798700
vt 0.678700 0.795300
vt 0.686000 0.839500
vt 0.688400 0.831700
vt 0.707300 0.814900
vt 0.701900 0.799400
vt 0.709500 0.824700
vt 0.697800 0.788900
vt 0.696000 0.783200
vt 0.704400 0.847200
vt 0.709300 0.835900
vt 0.728800 0.811600
vt 0.715000 0.813600
vt 0.709700 0.796900
vt 0.720100 0.792900
vt 0.728400 0.795000
vt 0.717500 0.824000
vt 0.730500 0.821400
vt 0.705900 0.786500
vt 0.718200 0.784600
vt 0.705400 0.776700
vt 0.714900 0.776300
vt 0.701700 0.775700
vt 0.712800 0.848600
vt 0.714400 0.843200
vt 0.717900 0.834400
vt 0.731500 0.832100
vt 0.719400 0.842200
vt 0.732100 0.842800
vt 0.727700 0.785100
vt 0.726200 0.776500
vt 0.741800 0.796300
vt 0.740100 0.811200
vt 0.736400 0.793900
vt 0.736900 0.786700
vt 0.740800 0.819800
vt 0.743700 0.831200
vt 0.743300 0.843800
vt 0.716700 0.846900
vt 0.636600 0.751000
vt 0.637300 0.764500
vt 0.632900 0.763200
vt 0.632900 0.751600
vt 0.635400 0.770500
vt 0.631200 0.766800
vt 0.628800 0.775300
vt 0.626500 0.772500
vt 0.629300 0.738600
vt 0.635500 0.736600
vt 0.626700 0.753000
vt 0.627700 0.762400
vt 0.622500 0.742300
vt 0.720700 0.845900
vt 0.732100 0.847200
vt 0.742100 0.849500
vt 0.625200 0.725200
vt 0.632800 0.721000
vt 0.621100 0.715300
vt 0.628200 0.711500
vt 0.615700 0.732200
vt 0.610900 0.723900
vt 0.738000 0.776700
vt 0.747100 0.778500
vt 0.745100 0.789200
vt 0.613900 0.747300
vt 0.608700 0.741300
vt 0.618100 0.756100
vt 0.601200 0.734100
vt 0.621700 0.764800
vt 0.621300 0.774200
vt 0.618700 0.765600
vt 0.607700 0.768000
vt 0.610900 0.761100
vt 0.621700 0.777100
vt 0.607000 0.771300
vt 0.615000 0.757900
vt 0.598300 0.760900
vt 0.600000 0.744200
vt 0.607000 0.747900
vt 0.597000 0.765300
vt 0.611700 0.750000
vt 0.139600 0.607600
vt 0.136900 0.621000
vt 0.148500 0.637800
vt 0.163700 0.647900
vt 0.157600 0.632300
vt 0.601900 0.809900
vt 0.605100 0.803400
vt 0.594700 0.806500
vt 0.598400 0.800700
vt 0.587500 0.804400
vt 0.592100 0.798700
vt 0.582800 0.801000
vt 0.589900 0.796000
vt 0.581400 0.796800
vt 0.588100 0.790300
vt 0.592100 0.789800
vt 0.592500 0.795700
vt 0.603700 0.790600
vt 0.605200 0.795100
vt 0.607000 0.799700
vt 0.605500 0.797700
vt 0.593100 0.798100
vt 0.160900 0.655100
vt 0.155900 0.659900
vt 0.156600 0.655100
vt 0.102700 0.799700
vt 0.081700 0.780900
vt 0.009400 0.653500
vt 0.004700 0.639700
vt 0.016000 0.683300
vt 0.010100 0.668900
vt 0.036100 0.712500
vt 0.025300 0.699200
vt 0.074100 0.769200
vt 0.058300 0.746600
vt 0.047600 0.727300
vt 0.088500 0.762200
vt 0.083000 0.768700
vt 0.607400 0.492600
vt 0.652500 0.822500
vn 0.4899 0.5956 0.6366
vn 0.3188 0.5030 0.8034
vn 0.4891 0.5431 0.6825
vn 0.8729 0.3522 0.3377
vn 0.7704 0.2895 0.5680
vn 0.3970 0.4158 0.8182
vn 0.6836 0.2960 0.6672
vn 0.6862 0.3041 0.6607
vn 0.6861 0.3035 0.6612
vn 0.3566 0.2762 0.8925
vn 0.7231 0.1563 0.6728
vn 0.3050 0.7273 0.6148
vn 0.7250 -0.0088 0.6887
vn 0.4845 0.6572 0.5774
vn 0.9156 0.2602 0.3066
vn 0.6312 0.2795 0.7235
vn 0.8913 -0.0549 0.4501
vn 0.7184 -0.1614 0.6766
vn 0.8781 0.1877 0.4401
vn 0.6864 0.3047 0.6603
vn 0.8448 0.2932 0.4476
vn 0.9944 -0.0899 0.0560
vn 0.6730 0.3530 0.6499
vn 0.9812 -0.0248 0.1914
vn 0.9920 -0.0523 0.1150
vn 0.9998 -0.0177 -0.0065
vn 0.9643 -0.0689 0.2558
vn 0.9419 -0.3264 0.0797
vn 0.9212 -0.3851 0.0562
vn 0.9492 -0.2806 0.1422
vn 0.7340 -0.6579 -0.1684
vn 0.6352 -0.7692 0.0697
vn 0.7964 -0.5819 0.1647
vn 0.7950 -0.6056 0.0349
vn 0.5612 -0.8041 -0.1959
vn 0.7059 -0.7014 0.0985
vn 0.4891 -0.8698 -0.0651
vn 0.9407 -0.3126 0.1316
vn 0.9739 -0.0417 0.2232
vn 0.9807 -0.1881 0.0534
vn 0.9816 -0.0496 0.1845
vn 0.8706 -0.4763 -0.1235
vn 0.5413 -0.7458 -0.3882
vn 0.9769 -0.2114 0.0307
vn 0.9803 -0.1312 0.1477
vn 0.9872 0.1366 -0.0820
vn 0.9603 0.2288 -0.1596
vn 0.9897 -0.1396 0.0321
vn 0.9869 -0.0823 0.1385
vn 0.9386 -0.2956 -0.1779
vn 0.7568 -0.5074 -0.4120
vn 0.9945 0.0145 -0.1033
vn 0.9726 -0.1525 -0.1756
vn 0.9798 0.1999 0.0050
vn 0.9550 0.2891 -0.0665
vn 0.4333 0.8996 -0.0537
vn 0.8302 0.5537 0.0651
vn 0.6301 0.7131 -0.3073
vn 0.7953 0.5367 0.2818
vn 0.9248 0.2351 0.2991
vn 0.9438 0.0159 0.3300
vn 0.8773 -0.3556 0.3223
vn 0.3333 -0.9020 -0.2745
vn 0.6459 -0.7631 0.0213
vn 0.2449 -0.9651 -0.0931
vn 0.3885 -0.8345 -0.3907
vn 0.5098 -0.8601 -0.0191
vn 0.8261 -0.5447 -0.1447
vn 0.9448 -0.1487 0.2921
vn 0.8618 -0.4727 0.1839
vn 0.9767 0.1779 -0.1198
vn 0.9524 0.2148 0.2161
vn 0.9969 0.0604 -0.0506
vn 0.9963 0.0649 0.0557
vn 0.9961 0.0451 0.0754
vn 0.9619 0.1908 -0.1957
vn 0.9574 0.2759 0.0850
vn 0.8416 -0.4971 0.2111
vn 0.7622 -0.6327 0.1368
vn 0.7166 -0.6301 0.2992
vn 0.8044 -0.4790 0.3515
vn 0.6728 -0.7219 0.1615
vn 0.3604 -0.9071 0.2173
vn 0.2934 -0.8829 0.3666
vn 0.6447 -0.7024 0.3017
vn 0.8434 0.5348 0.0518
vn 0.6519 0.6010 -0.4624
vn -0.0561 -0.9719 -0.2288
vn -0.0221 -0.9984 -0.0527
vn -0.0118 -0.9514 -0.3077
vn 0.1681 -0.9832 -0.0712
vn 0.7489 0.4059 0.5238
vn -0.0506 -0.2767 0.9596
vn 0.8233 0.2743 0.4969
vn 0.2374 0.6792 0.6945
vn 0.8766 0.2801 0.3914
vn 0.9973 0.0164 0.0718
vn 0.8686 -0.4934 0.0457
vn 0.5423 0.5120 -0.6661
vn 0.9902 0.1065 -0.0906
vn 0.8327 0.0063 0.5537
vn 0.0238 -0.0722 0.9971
vn -0.7832 0.2219 0.5808
vn 0.9796 -0.1938 -0.0541
vn -0.0326 0.3376 -0.9407
vn -0.8376 0.4268 -0.3410
vn 0.0698 -0.0249 0.9973
vn -0.6632 0.4487 0.5990
vn 0.9173 -0.3857 -0.0988
vn -0.0064 0.3641 -0.9314
vn -0.7207 0.6372 -0.2731
vn 0.0794 -0.0380 0.9961
vn -0.5660 0.5728 0.5928
vn 0.8127 -0.5758 -0.0891
vn -0.0077 0.2666 -0.9638
vn -0.6394 0.7253 -0.2552
vn 0.1581 -0.2431 0.9570
vn 0.2042 0.0599 0.9771
vn -0.2919 0.7852 0.5461
vn -0.1869 0.7769 0.6012
vn 0.7134 -0.6723 0.1978
vn 0.8389 -0.5433 0.0320
vn 0.2192 0.4462 -0.8677
vn 0.8654 -0.4970 0.0640
vn 0.9752 0.1010 -0.1967
vn -0.2850 0.9546 -0.0862
vn -0.3599 0.9094 -0.2085
vn -0.2086 0.6107 -0.7639
vn -0.1840 0.7760 -0.6034
vn 0.6199 -0.7378 0.2671
vn 0.2150 -0.2869 0.9335
vn 0.3933 -0.8547 0.3388
vn 0.0663 0.7447 0.6641
vn -0.0618 0.9967 -0.0523
vn -0.0712 0.8705 -0.4870
vn 0.7775 -0.5695 0.2668
vn 0.4833 0.6404 -0.5969
vn 0.3995 0.8801 0.2565
vn -0.0236 0.8943 -0.4468
vn -0.1805 0.9663 -0.1837
vn -0.1627 0.8981 -0.4087
vn 0.7045 -0.5591 0.4371
vn 0.4562 -0.5905 0.6657
vn 0.5828 -0.4334 0.6874
vn 0.2094 -0.9051 0.3700
vn 0.2518 -0.8858 0.3898
vn 0.0579 -0.4832 -0.8736
vn 0.0089 -0.3488 -0.9372
vn 0.0925 -0.7086 -0.6995
vn 0.0306 -0.1141 -0.9930
vn 0.0020 -0.2747 -0.9615
vn 0.0124 -0.0213 -0.9997
vn -0.0850 0.9837 0.1586
vn -0.3442 0.8112 -0.4728
vn 0.0517 -0.0743 -0.9959
vn 0.0141 -0.0390 -0.9991
vn -0.0060 0.0051 -1.0000
vn -0.0111 0.0121 -0.9999
vn -0.0050 0.0037 -1.0000
vn -0.0116 0.0129 -0.9998
vn -0.0781 0.3938 -0.9159
vn 0.0235 -0.1118 -0.9935
vn 0.2709 -0.1172 -0.9555
vn 0.0482 -0.2996 -0.9528
vn 0.0808 -0.3245 -0.9424
vn 0.3039 -0.3493 -0.8864
vn 0.0751 -0.2450 -0.9666
vn 0.7650 0.6157 -0.1891
vn 0.1786 -0.9727 0.1479
vn 0.6357 -0.7653 -0.1011
vn 0.6911 -0.7216 -0.0404
vn 0.9614 -0.1364 0.2389
vn 0.8958 -0.2343 0.3776
vn 0.5118 -0.3712 0.7747
vn 0.2956 -0.2517 0.9215
vn 0.2012 -0.9364 0.2877
vn 0.4050 -0.9143 0.0107
vn 0.5144 -0.8545 -0.0727
vn 0.6338 -0.7141 -0.2974
vn 0.6482 -0.7386 -0.1852
vn 0.6236 -0.6884 0.3704
vn 0.6075 -0.2772 0.7444
vn 0.8595 0.0784 0.5052
vn 0.9038 -0.0505 0.4250
vn 0.1768 -0.1107 0.9780
vn 0.6962 -0.2265 0.6812
vn -0.0977 -0.9080 -0.4074
vn 0.0086 -0.9419 -0.3358
vn 0.3107 -0.9241 0.2227
vn 0.5037 -0.8181 -0.2776
vn 0.8459 -0.4967 -0.1945
vn 0.9063 -0.2152 0.3636
vn 0.1258 0.5416 0.8312
vn 0.2243 0.4893 0.8428
vn 0.9574 0.1248 0.2605
vn -0.0331 0.5819 0.8126
vn 0.9314 -0.1889 0.3111
vn 0.6847 0.7018 0.1966
vn 0.9670 0.2543 0.0148
vn 0.8970 0.1694 0.4082
vn 0.9557 0.2943 -0.0044
vn 0.2023 -0.3774 0.9037
vn 0.2965 -0.2224 0.9288
vn -0.0844 -0.9621 0.2594
vn -0.1913 -0.8776 0.4396
vn -0.5794 -0.6758 0.4556
vn -0.7351 -0.5295 0.4233
vn -0.8035 -0.4666 0.3696
vn -0.8084 -0.5175 0.2804
vn -0.9255 -0.0724 0.3717
vn -0.8920 0.1110 0.4381
vn -0.9051 0.1734 0.3882
vn -0.8854 0.2479 0.3933
vn -0.5500 0.7124 0.4359
vn 0.1487 0.9880 0.0414
vn -0.2619 0.8894 0.3747
vn 0.2290 0.9459 0.2298
vn 0.1310 0.9488 0.2875
vn -0.2483 0.6118 0.7511
vn 0.0920 0.5696 0.8168
vn -0.1992 0.5530 0.8090
vn -0.6955 0.3963 0.5993
vn -0.5073 0.3004 0.8077
vn -0.0417 0.4350 0.8995
vn -0.3419 0.3481 0.8729
vn -0.0235 0.3086 0.9509
vn -0.3874 0.2496 0.8875
vn -0.0442 0.7620 0.6460
vn -0.5128 0.1735 0.8408
vn -0.2386 0.7309 0.6394
vn -0.7357 0.3144 0.5999
vn -0.3798 0.2234 0.8977
vn -0.6860 -0.0143 0.7275
vn -0.5021 -0.0674 0.8622
vn -0.6660 0.2441 0.7049
vn -0.3766 0.3360 0.8633
vn -0.3960 0.3290 0.8573
vn -0.7988 0.2786 0.5332
vn -0.9926 0.1035 -0.0631
vn -0.5071 0.2595 0.8219
vn -0.8575 0.0401 0.5129
vn -0.9159 0.2261 0.3317
vn -0.8838 0.2512 0.3948
vn -0.8381 -0.0037 0.5455
vn -0.9043 -0.1488 0.4000
vn -0.8850 -0.2875 0.3663
vn -0.8778 -0.1691 0.4482
vn -0.8243 -0.5638 0.0504
vn -0.6164 -0.7801 0.1070
vn -0.6975 -0.2895 0.6554
vn -0.8199 -0.4751 0.3195
vn -0.6786 -0.7334 0.0400
vn -0.6446 -0.7145 0.2721
vn -0.6226 -0.7684 0.1477
vn -0.8622 -0.1771 0.4746
vn -0.8701 -0.0245 0.4922
vn -0.9223 -0.0882 0.3763
vn -0.8778 0.0124 0.4788
vn -0.9187 -0.3515 0.1803
vn -0.7770 -0.6181 -0.1190
vn -0.9224 -0.1298 0.3638
vn -0.9072 -0.0777 0.4135
vn -0.9905 0.0744 0.1155
vn -0.9419 0.3097 0.1298
vn -0.9476 -0.0430 0.3167
vn -0.9055 -0.0079 0.4243
vn -0.9821 -0.1721 0.0772
vn -0.9501 -0.3105 0.0281
vn -0.9907 0.1361 0.0040
vn -0.9841 0.1118 0.1382
vn -0.9391 0.2860 0.1904
vn -0.9005 0.3774 0.2159
vn -0.2933 0.9554 -0.0338
vn -0.4282 0.8728 -0.2343
vn -0.4385 -0.8844 -0.1598
vn -0.6049 -0.7801 0.1598
vn -0.3025 -0.9531 -0.0085
vn -0.5396 -0.8394 -0.0650
vn -0.9763 0.2121 0.0441
vn -0.9948 0.0608 -0.0814
vn -0.9909 -0.0487 0.1255
vn -0.8977 -0.1057 0.4277
vn -0.6805 0.3238 0.6573
vn -0.5336 0.1368 0.8346
vn 0.4040 0.0787 0.9114
vn -0.3941 0.5655 0.7245
vn -0.4534 0.3728 0.8096
vn -0.8064 -0.0262 0.5908
vn -0.9596 -0.0507 0.2767
vn -0.8062 -0.4845 0.3396
vn -0.7724 0.0055 -0.6351
vn -0.4993 0.4913 -0.7137
vn 0.0480 -0.1350 0.9897
vn 0.9579 0.1322 0.2550
vn -0.9572 -0.0185 0.2889
vn -0.8709 0.1913 -0.4528
vn -0.2381 0.3498 -0.9061
vn 0.7100 0.3398 -0.6168
vn 0.0367 -0.1526 0.9876
vn 0.9016 0.3050 0.3068
vn -0.9483 -0.1988 0.2474
vn -0.8728 0.0639 -0.4839
vn -0.2523 0.3487 -0.9026
vn 0.6803 0.4935 -0.5419
vn 0.0476 -0.1912 0.9804
vn 0.7999 0.4893 0.3475
vn -0.8717 -0.4293 0.2361
vn -0.8572 -0.1504 -0.4925
vn -0.2815 0.2989 -0.9118
vn 0.6008 0.6479 -0.4683
vn 0.0111 -0.2126 0.9771
vn -0.0090 -0.1031 0.9946
vn 0.5505 0.7407 0.3852
vn 0.4329 0.7755 0.4596
vn -0.6341 -0.6683 0.3890
vn -0.7865 -0.5472 0.2863
vn -0.8553 -0.5139 -0.0659
vn -0.8466 -0.2820 -0.4513
vn -0.4293 0.4395 -0.7890
vn 0.3809 0.8618 -0.3348
vn 0.3275 0.9238 -0.1982
vn 0.0209 0.5933 -0.8047
vn 0.0510 0.7582 -0.6500
vn -0.3314 -0.7967 0.5055
vn -0.5958 -0.7491 0.2896
vn 0.1253 -0.2270 0.9658
vn -0.1591 -0.8555 0.4928
vn 0.2826 0.7608 0.5842
vn 0.1338 0.9900 -0.0444
vn -0.0671 0.8430 -0.5337
vn -0.6515 0.5602 -0.5117
vn -0.6284 -0.1851 0.7556
vn -0.5247 0.1002 0.8454
vn -0.0236 0.7498 0.6612
vn -0.4017 -0.1280 0.9068
vn -0.8909 -0.3019 0.3392
vn -0.8482 -0.3732 0.3759
vn -0.9446 -0.0984 0.3132
vn -0.1279 0.8026 -0.5826
vn 0.1609 0.9485 -0.2730
vn 0.1676 0.8963 -0.4105
vn -0.0244 0.1593 0.9869
vn 0.0624 0.2462 0.9672
vn -0.6625 -0.6444 0.3818
vn -0.1116 -0.9567 0.2687
vn -0.2290 -0.8175 0.5284
vn -0.1654 -0.7259 0.6676
vn -0.0615 -0.8741 0.4819
vn -0.4061 -0.4063 -0.8185
vn -0.4280 -0.3051 -0.8507
vn -0.2433 -0.6360 -0.7323
vn -0.4247 -0.1266 -0.8964
vn -0.5110 0.7235 -0.4642
vn -0.1179 0.7506 -0.6502
vn -0.1050 0.4911 -0.8647
vn 0.3987 0.9161 -0.0421
vn 0.3588 0.6798 0.6396
vn -0.3484 -0.0389 -0.9366
vn -0.3195 -0.0159 -0.9475
vn -0.3703 -0.0344 -0.9283
vn 0.0325 0.6335 -0.7731
vn -0.2894 -0.1346 -0.9477
vn -0.3495 -0.2692 -0.8974
vn -0.3621 -0.2222 -0.9053
vn -0.3962 -0.3055 -0.8658
vn -0.8711 0.1926 -0.4518
vn -0.6012 -0.7700 0.2138
vn -0.7459 -0.5876 0.3136
vn -0.8404 0.0625 0.5384
vn -0.7223 -0.1490 0.6753
vn -0.1929 -0.3305 0.9239
vn -0.3762 -0.8323 0.4071
vn -0.6587 -0.7468 0.0916
vn -0.7098 -0.6972 -0.1003
vn -0.6812 -0.7321 0.0073
vn -0.4990 -0.7080 0.4997
vn -0.4280 -0.5015 0.7518
vn -0.7146 -0.0511 0.6977
vn -0.7573 -0.0051 0.6531
vn -0.2723 -0.1548 0.9497
vn -0.1525 -0.9039 -0.3996
vn -0.4095 -0.9123 0.0047
vn -0.6284 -0.7604 -0.1640
vn -0.7600 -0.6455 0.0757
vn -0.8239 -0.3283 0.4620
vn 0.0758 0.2683 0.9603
vn -0.5398 0.3947 0.7435
vn -0.6904 0.4711 0.5491
vn -0.5789 0.6970 0.4231
vn -0.7407 0.2515 0.6230
vn -0.8739 0.1462 0.4635
vn -0.8632 0.3863 0.3251
vn -0.0299 -0.5213 0.8529
vn -0.1392 0.9896 0.0364
vn -0.3315 0.9430 0.0300
vn -0.5639 -0.7537 0.3375
vn -0.8150 -0.5231 0.2491
vn -0.9403 -0.0071 0.3403
vn -0.9496 0.2675 0.1635
vn -0.9153 0.1703 0.3651
vn -0.9228 0.0920 0.3741
vn -0.8557 -0.4707 0.2150
vn -0.6836 -0.6652 0.3003
vn -0.4043 0.8784 -0.2549
vn -0.3543 0.8180 -0.4531
vn -0.5946 0.7918 0.1393
vn -0.7433 0.6283 0.2297
vn 0.0640 -0.0048 0.9979
vn -0.7439 0.2316 0.6269
vn 0.9993 -0.0351 0.0089
vn 0.0411 0.4673 -0.8831
vn -0.8017 0.4843 -0.3502
vn -0.6992 0.1128 0.7060
vn 0.9445 0.1649 0.2843
vn -0.2751 0.4614 -0.8435
vn 0.6782 0.4038 -0.6140
usemtl lambert1
s 1
f 4/1/1 1/2/1 2/3/1 3/4/1
f 8/5/2 4/1/2 3/4/2 5/6/2
f 10/7/3 2/3/3 1/2/3 6/8/3
f 1/2/4 4/1/4 7/9/4 17/10/4
f 6/8/5 1/2/5 17/10/5 20/11/5 19/12/5
f 10/7/6 6/8/6 9/13/6 12/14/6
f 9/13/7 6/8/7 19/12/8 22/15/9
f 12/14/10 9/13/10 11/16/10 13/17/10
f 11/16/11 9/13/11 22/15/11 23/18/11
f 13/17/12 11/16/12 14/19/12 15/20/12
f 108/21/13 11/16/13 23/18/13 111/22/13
f 109/23/14 14/19/14 11/16/14 108/21/14
f 17/10/15 7/9/15 18/24/15 16/25/15
f 19/12/16 20/11/16 104/26/16 27/27/16
f 21/28/17 43/29/17 20/11/17 17/10/17
f 20/11/18 43/29/18 26/30/18 104/26/18
f 21/28/19 17/10/19 16/25/19
f 22/15/9 19/12/8 27/27/20 28/31/20
f 23/18/21 22/15/21 28/31/21 24/32/21 25/33/21
f 111/22/22 23/18/22 25/33/22 117/34/22
f 28/31/23 27/27/23 104/26/23 103/35/23
f 30/36/24 29/37/24 16/25/24 18/24/24
f 189/38/25 30/36/25 18/24/25 187/39/25
f 31/40/26 186/41/26 187/39/26 18/24/26
f 21/28/27 16/25/27 29/37/27 32/42/27
f 37/43/28 33/44/28 29/37/28 30/36/28
f 37/43/29 30/36/29 189/38/29 190/45/29
f 32/42/30 29/37/30 33/44/30 34/46/30
f 37/43/31 36/47/31 35/48/31 33/44/31
f 37/43/32 38/49/32 36/47/32
f 38/49/33 37/43/33 190/45/33 192/50/33
f 33/44/34 35/48/34 39/51/34 34/46/34
f 41/52/35 40/53/35 35/48/35 36/47/35
f 41/52/36 36/47/36 38/49/36 180/54/36
f 35/48/37 40/53/37 42/55/37 39/51/37
f 107/56/38 26/30/38 43/29/38 48/57/38
f 48/57/39 43/29/39 21/28/39 44/58/39
f 32/42/40 34/46/40 45/59/40 53/60/40
f 21/28/41 32/42/41 53/60/41 44/58/41
f 34/46/42 39/51/42 46/61/42 45/59/42
f 39/51/43 42/55/43 47/62/43 46/61/43
f 106/63/44 107/56/44 48/57/44 49/64/44
f 48/57/45 44/58/45 50/65/45 49/64/45
f 24/32/46 106/63/46 49/64/46 51/66/46
f 49/64/47 50/65/47 52/67/47 51/66/47
f 53/60/48 45/59/48 54/68/48 55/69/48
f 53/60/49 55/69/49 50/65/49 44/58/49
f 54/68/50 45/59/50 46/61/50 56/70/50
f 57/71/51 56/70/51 46/61/51 47/62/51
f 54/68/52 56/70/52 59/72/52 58/73/52
f 59/72/53 56/70/53 57/71/53 60/74/53
f 54/68/54 58/73/54 61/75/54 55/69/54
f 52/67/55 50/65/55 55/69/55 61/75/55
f 110/76/56 62/77/56 14/19/56 109/23/56
f 63/78/57 64/79/57 65/80/57 62/81/57
f 63/82/58 62/77/58 110/76/58 112/83/58
f 64/79/59 63/78/59 68/84/59 67/85/59
f 67/85/60 68/84/60 70/86/60 69/87/60
f 71/88/61 69/87/61 70/86/61 72/89/61
f 73/90/62 71/88/62 72/89/62 74/91/62
f 76/92/63 75/93/63 40/53/63 41/52/63
f 76/92/64 41/52/64 180/54/64 77/94/64
f 40/53/65 75/93/65 78/95/65 42/55/65
f 42/55/66 78/95/66 79/96/66 47/62/66
f 81/97/67 80/98/67 47/62/67 79/96/67
f 57/71/68 47/62/68 80/98/68 82/99/68
f 72/100/69 70/101/69 60/74/69 57/71/69
f 74/102/70 72/100/70 57/71/70 82/99/70
f 59/72/71 60/74/71 95/103/71 115/104/71
f 60/74/72 70/101/72 68/105/72 95/103/72
f 116/106/73 58/73/73 59/72/73 115/104/73 114/107/73
f 83/108/74 61/75/74 58/73/74 116/106/74
f 61/75/75 83/108/75 84/109/75 52/67/75
f 25/33/76 24/32/76 51/66/76 85/110/76
f 52/67/77 84/109/77 85/110/77 51/66/77
f 74/102/78 82/99/78 80/98/78 86/111/78
f 86/111/79 80/98/79 87/112/79
f 86/113/80 87/114/80 88/115/80 89/116/80
f 74/91/81 86/113/81 89/116/81 73/90/81
f 90/117/82 87/112/82 80/98/82 81/97/82
f 90/117/83 81/97/83 79/96/83 91/118/83
f 92/119/84 90/120/84 91/121/84 93/122/84
f 87/114/85 90/120/85 92/119/85 88/115/85
f 95/103/86 68/105/86 63/82/86 96/123/86
f 113/124/87 96/123/87 63/82/87 112/83/87
f 79/96/88 78/95/88 97/125/88 94/126/88
f 97/125/89 78/95/89 75/93/89 98/127/89
f 99/128/90 98/127/90 75/93/90 76/92/90
f 99/128/91 76/92/91 77/94/91 179/129/91
f 28/31/92 103/35/92 24/32/92
f 104/26/93 26/30/93 100/130/93 102/131/93
f 102/131/94 100/130/94 101/132/94 105/133/94
f 104/26/95 102/131/95 105/133/95 103/35/95
f 24/32/96 103/35/96 105/133/96 106/63/96
f 105/133/97 101/132/97 107/56/97 106/63/97
f 107/56/98 101/132/98 100/130/98 26/30/98
f 114/107/99 115/104/99 96/123/99 113/124/99
f 117/34/100 25/33/100 85/110/100 118/134/100
f 85/110/101 84/109/101 118/134/101
f 124/135/102 119/136/102 413/137/102 121/138/102
f 413/137/103 415/139/103 120/140/103 121/138/103
f 119/136/104 124/135/104 127/141/104 122/142/104
f 128/143/105 123/144/105 122/145/105 127/146/105
f 120/140/106 415/139/106 123/144/106 128/143/106
f 124/135/107 121/138/107 125/147/107 130/148/107
f 125/147/108 121/138/108 120/140/108 126/149/108
f 124/135/109 130/148/109 134/150/109 127/141/109
f 136/151/110 128/143/110 127/146/110 134/152/110
f 126/149/111 120/140/111 128/143/111 136/151/111
f 129/153/112 130/148/112 125/147/112 131/154/112
f 125/147/113 126/149/113 132/155/113 131/154/113
f 134/150/114 130/148/114 129/153/114 133/156/114
f 136/151/115 134/152/115 133/157/115 135/158/115
f 132/155/116 126/149/116 136/151/116 135/158/116
f 145/159/117 137/160/117 138/161/117 148/162/117 149/163/117
f 137/160/118 129/153/118 131/154/118 138/161/118
f 131/154/119 132/155/119 139/164/119 138/161/119
f 138/161/120 139/164/120 150/165/120 148/162/120
f 140/166/121 137/160/121 145/159/121 147/167/121
f 133/156/122 129/153/122 137/160/122 140/166/122
f 141/168/123 135/158/123 133/157/123 142/169/123
f 140/166/124 147/167/124 155/170/124 156/171/124
f 142/172/125 133/156/125 140/166/125 156/171/125 157/173/125
f 150/165/126 139/164/126 143/174/126 151/175/126
f 139/164/127 132/155/127 135/158/127 143/174/127
f 135/158/128 141/168/128 144/176/128 143/174/128
f 143/174/129 144/176/129 152/177/129 151/175/129
f 145/159/130 146/178/130 147/167/130
f 149/163/131 148/162/131 108/179/131 111/180/131 164/181/131
f 146/178/132 145/159/132 149/163/132 162/182/132
f 150/165/133 109/183/133 108/179/133 148/162/133
f 150/165/134 151/175/134 110/184/134 109/183/134
f 151/175/135 152/177/135 112/185/135 110/184/135
f 147/167/136 146/178/136 154/186/136 155/170/136
f 141/168/137 142/169/137 153/187/137
f 153/188/138 142/189/138 157/173/138 170/190/138
f 141/168/139 153/187/139 158/191/139 144/176/139
f 159/192/140 152/177/140 144/176/140 158/191/140
f 159/192/141 113/193/141 112/185/141 152/177/141
f 160/194/142 154/186/142 146/178/142 162/182/142
f 161/195/143 160/194/143 162/182/143 163/196/143
f 117/197/144 118/198/144 84/199/144 83/200/144 161/195/144 163/196/144
f 163/196/145 162/182/145 149/163/145 164/181/145
f 111/180/146 117/197/146 163/196/146 164/181/146
f 165/201/147 160/194/147 161/195/147 167/202/147
f 165/201/148 166/203/148 154/186/148 160/194/148
f 161/195/149 83/200/149 116/204/149 167/202/149
f 156/171/150 155/170/150 168/205/150 169/206/150
f 168/205/151 155/170/151 154/186/151 166/203/151
f 169/206/152 170/190/152 157/173/152 156/171/152
f 153/188/153 170/190/153 171/207/153 158/208/153
f 158/208/154 171/207/154 173/209/154 159/210/154
f 172/211/155 169/206/155 168/205/155 177/212/155
f 175/213/156 172/211/156 177/212/156
f 171/207/157 172/211/158 175/213/159 173/209/159
f 171/207/157 170/190/160 169/206/160 172/211/158
f 173/209/161 114/214/161 113/215/161 159/210/161
f 174/216/162 175/213/162 177/212/162 176/217/162
f 114/214/163 173/209/163 175/213/163 174/216/163
f 174/216/164 176/217/164 165/201/164 167/202/164
f 165/201/165 176/217/165 166/203/165
f 116/204/166 114/214/166 174/216/166 167/202/166
f 166/203/167 176/217/167 177/212/167 168/205/167
f 96/123/168 115/104/168 95/103/168
f 179/129/169 77/94/169 178/218/169 196/219/169
f 77/94/170 180/54/170 193/220/170 178/218/170
f 180/54/171 38/49/171 192/50/171 193/220/171
f 209/221/172 185/222/172 186/41/172 31/40/172
f 210/223/173 184/224/173 185/222/173 209/221/173
f 8/5/174 182/225/174 184/224/174 210/223/174
f 8/5/175 5/6/175 181/226/175 182/225/175
f 199/227/176 182/228/176 181/229/176 183/230/176
f 201/231/177 184/232/177 182/228/177 199/227/177
f 203/233/178 185/234/178 184/232/178 201/231/178
f 205/235/179 186/236/179 185/234/179 203/233/179
f 187/237/180 186/236/180 205/235/180 188/238/180
f 189/239/181 187/237/181 188/238/181
f 189/239/182 188/238/182 190/240/182
f 190/240/183 188/238/183 191/241/183 192/242/183
f 193/243/184 192/242/184 191/241/184 194/244/184
f 195/245/185 196/246/185 178/247/185 197/248/185
f 193/243/186 194/244/186 197/248/186 178/247/186
f 199/227/187 183/230/187 198/249/187 200/250/187
f 201/231/188 199/227/188 200/250/188 202/251/188
f 203/233/189 201/231/189 202/251/189 204/252/189
f 205/235/190 203/233/190 204/252/190 206/253/190
f 188/238/191 205/235/191 206/253/191 191/241/191
f 206/253/192 204/252/192 194/244/192 191/241/192
f 207/254/193 208/255/193 195/245/193 197/248/193
f 197/248/194 194/244/194 204/252/194 207/254/194
f 210/223/195 209/221/195 212/256/195 211/257/195
f 8/5/196 210/223/196 211/257/196 4/1/196
f 211/257/197 212/256/197 214/258/197 213/259/197
f 211/257/198 213/259/198 7/9/198 4/1/198
f 214/258/199 212/256/199 209/221/199
f 213/259/200 214/258/200 209/221/200 31/40/200
f 7/9/201 213/259/201 31/40/201 18/24/201
f 208/255/202 207/254/202 200/250/202 198/249/202
f 200/250/203 207/254/203 204/252/203 202/251/203
f 91/118/204 79/96/204 94/126/204 215/260/204
f 216/261/205 93/262/205 91/263/205 215/264/205
f 217/265/206 216/261/206 215/264/206 218/266/206
f 219/267/207 217/265/207 218/266/207 220/268/207
f 221/269/208 219/267/208 220/268/208 222/270/208
f 223/271/209 221/269/209 222/270/209 224/272/209
f 225/273/210 223/271/210 224/272/210 226/274/210
f 225/273/211 226/274/211 228/275/211 227/276/211
f 229/277/212 230/278/212 227/276/212 228/275/212
f 230/278/213 229/277/213 232/279/213 231/280/213
f 234/281/214 231/280/214 232/279/214 233/282/214
f 15/20/215 14/19/215 62/77/215 235/283/215
f 234/281/216 233/282/216 235/284/216 236/285/216
f 235/284/217 62/81/217 65/80/217 66/286/217
f 235/284/218 66/286/218 236/285/218
f 237/287/219 238/288/219 3/289/219 2/290/219
f 5/6/220 3/289/220 238/288/220 408/291/220 396/292/220
f 237/287/221 2/290/221 10/293/221 241/294/221
f 238/288/222 237/287/222 239/295/222 240/296/222
f 239/295/223 237/287/223 241/294/223 248/297/223 247/298/223
f 241/294/224 10/293/224 12/299/224 242/300/224
f 241/294/225 242/300/225 249/301/225 248/297/225
f 242/300/226 12/299/226 13/302/226 244/303/226
f 242/300/227 244/303/227 250/304/227 249/301/227
f 13/302/228 15/305/228 243/306/228 244/303/228
f 244/303/229 306/307/229 307/308/229 250/304/229
f 306/307/230 244/303/230 243/306/230 245/309/230
f 239/295/231 246/310/231 258/311/231 240/296/231
f 247/298/232 248/297/232 252/312/232 253/313/232
f 268/314/233 270/315/233 239/295/233 247/298/233
f 268/314/234 247/298/234 253/313/234 305/316/234
f 270/315/235 246/310/235 239/295/235
f 248/297/236 249/301/236 254/317/236 252/312/236
f 249/301/237 250/304/237 254/317/237
f 300/318/238 254/317/238 250/304/238 307/308/238 251/319/238
f 281/320/239 280/321/239 300/318/239 251/319/239 316/322/239 315/323/239
f 254/317/240 255/324/240 253/313/240 252/312/240
f 258/311/241 246/310/241 257/325/241 256/326/241
f 258/311/242 256/326/242 391/327/242 392/328/242
f 393/329/243 259/330/243 258/311/243 392/328/243
f 257/325/244 246/310/244 270/315/244 260/331/244
f 261/332/245 262/333/245 256/326/245 257/325/245
f 402/334/246 391/327/246 256/326/246 262/333/246
f 261/332/247 257/325/247 260/331/247 272/335/247
f 263/336/248 264/337/248 262/333/248 261/332/248
f 264/337/249 265/338/249 262/333/249
f 265/338/250 390/339/250 402/334/250 262/333/250
f 273/340/251 263/336/251 261/332/251 272/335/251
f 266/341/252 267/342/252 264/337/252 263/336/252
f 265/338/253 264/337/253 267/342/253 388/343/253
f 274/344/254 266/341/254 263/336/254 273/340/254
f 268/314/255 305/316/255 275/345/255 269/346/255
f 269/346/256 276/347/256 270/315/256 268/314/256
f 272/335/257 260/331/257 271/348/257 283/349/257
f 260/331/258 270/315/258 276/347/258 271/348/258
f 273/340/259 272/335/259 283/349/259 284/350/259
f 274/344/260 273/340/260 284/350/260 285/351/260
f 269/346/261 275/345/261 277/352/261 278/353/261
f 276/347/262 269/346/262 278/353/262 279/354/262
f 278/353/263 277/352/263 280/321/263 281/320/263
f 279/354/264 278/353/264 281/320/264 282/355/264
f 286/356/265 287/357/265 283/349/265 271/348/265
f 286/356/266 271/348/266 276/347/266 279/354/266
f 283/349/267 287/357/267 288/358/267 284/350/267
f 285/351/268 284/350/268 288/358/268 289/359/268
f 290/360/269 291/361/269 288/358/269 287/357/269
f 288/358/270 291/361/270 292/362/270 289/359/270
f 290/360/271 287/357/271 286/356/271 293/363/271
f 279/354/272 282/355/272 293/363/272 286/356/272
f 245/309/273 243/306/273 295/364/273 294/365/273
f 294/365/274 295/364/274 296/366/274
f 267/342/275 266/341/275 98/367/275 99/368/275
f 388/343/276 267/342/276 99/368/276 179/369/276
f 266/341/277 274/344/277 97/370/277 98/367/277
f 94/371/278 97/370/278 274/344/278 285/351/278 297/372/278 299/373/278
f 314/374/279 387/375/279 292/362/279 291/361/279
f 313/376/280 314/374/280 291/361/280 290/360/280 298/377/280
f 298/377/281 290/360/281 293/363/281 318/378/281
f 318/378/282 293/363/282 282/355/282 317/379/282
f 317/379/283 282/355/283 281/320/283 315/323/283 316/322/283
f 254/317/284 300/318/284 280/321/284 255/324/284
f 305/316/285 253/313/285 301/380/285 303/381/285
f 303/381/286 301/380/286 302/382/286 304/383/286
f 253/313/287 255/324/287 302/382/287 301/380/287
f 280/321/288 277/352/288 302/382/288 255/324/288
f 277/352/289 275/345/289 304/383/289 302/382/289
f 275/345/290 305/316/290 303/381/290 304/383/290
f 310/384/291 311/385/291 314/374/291 313/376/291
f 309/386/292 312/387/292 311/385/292 310/384/292
f 321/388/293 322/389/293 319/390/293 325/391/293
f 324/392/294 322/389/294 321/388/294 323/393/294
f 325/391/295 319/390/295 320/394/295 327/395/295
f 320/394/296 417/396/296 326/397/296 327/395/296
f 418/398/297 328/399/297 326/400/297 417/401/297
f 324/392/298 323/393/298 328/399/298 418/398/298
f 329/402/299 321/388/299 325/391/299 331/403/299
f 323/393/300 321/388/300 329/402/300 330/404/300
f 331/403/301 325/391/301 327/395/301 332/405/301
f 327/395/302 326/397/302 333/406/302 332/405/302
f 333/407/303 326/400/303 328/399/303 334/408/303
f 334/408/304 328/399/304 323/393/304 330/404/304
f 335/409/305 329/402/305 331/403/305 337/410/305
f 336/411/306 330/404/306 329/402/306 335/409/306
f 337/410/307 331/403/307 332/405/307 338/412/307
f 333/406/308 339/413/308 338/412/308 332/405/308
f 339/414/309 333/407/309 334/408/309 340/415/309
f 340/415/310 334/408/310 330/404/310 336/411/310
f 352/416/311 341/417/311 343/418/311 350/419/311 353/420/311
f 341/417/312 335/409/312 337/410/312 343/418/312
f 342/421/313 336/411/313 335/409/313 341/417/313
f 354/422/314 342/421/314 341/417/314 352/416/314
f 343/418/315 344/423/315 351/424/315 350/419/315
f 343/418/316 337/410/316 338/412/316 344/423/316
f 344/423/317 347/425/317 357/426/317 351/424/317
f 344/423/318 338/412/318 339/413/318 346/427/318 347/425/318
f 346/428/319 339/414/319 340/415/319 345/429/319
f 348/430/320 340/415/320 336/411/320 342/421/320
f 348/430/321 342/421/321 354/422/321 355/431/321
f 349/432/322 345/429/322 340/415/322 348/430/322
f 349/432/323 348/430/323 355/431/323 356/433/323
f 353/420/324 350/419/324 351/424/324 373/434/324
f 373/434/325 351/424/325 357/426/325 368/435/325
f 307/436/326 306/437/326 352/416/326 353/420/326 375/438/326
f 353/420/327 373/434/327 374/439/327 375/438/327
f 354/422/328 352/416/328 306/437/328 245/440/328
f 354/422/329 245/440/329 294/441/329 355/431/329
f 355/431/330 294/441/330 308/442/330 356/433/330
f 358/443/331 346/428/331 345/429/331
f 357/444/332 347/445/332 359/446/332 362/447/332
f 359/446/333 347/445/333 346/448/333 360/449/333
f 360/449/334 346/448/334 358/450/334 361/451/334
f 357/444/335 362/447/335 367/452/335 368/453/335
f 363/454/336 362/447/336 359/446/336 364/455/336
f 362/447/337 363/454/337 371/456/337 367/452/337
f 364/455/338 359/446/338 360/449/338
f 365/457/339 358/443/339 345/429/339 349/432/339
f 366/458/340 365/457/340 349/432/340 356/433/340
f 309/459/341 366/458/341 356/433/341 308/442/341
f 368/453/342 367/452/342 369/460/342 370/461/342
f 370/461/343 369/460/343 317/462/343 316/463/343
f 369/460/344 367/452/344 371/456/344 372/464/344
f 372/464/345 318/465/345 317/462/345 369/460/345
f 373/434/346 368/435/346 370/466/346 374/439/346
f 316/467/347 251/468/347 374/439/347 370/466/347
f 374/439/348 251/468/348 307/436/348 375/438/348
f 372/464/349 371/456/349 376/469/349 377/470/349
f 376/469/350 371/456/350 363/454/350 378/471/350
f 298/472/351 318/465/351 372/464/351 377/470/351
f 378/471/352 363/454/352 364/455/352 379/473/352
f 379/473/353 364/455/353 360/449/353 361/451/353
f 379/473/354 361/451/354 380/474/354 381/475/354
f 381/475/355 380/474/355 382/476/355 383/477/355
f 380/474/356 365/478/356 366/479/356 382/476/356
f 380/474/357 361/451/357 358/450/357 365/478/357
f 378/471/358 379/473/358 381/475/358 386/480/358
f 381/475/359 383/477/359 386/480/359
f 382/476/360 310/481/360 313/482/360 385/483/360 383/477/360
f 382/476/361 366/479/361 309/484/361 310/481/361
f 384/485/362 386/480/362 383/477/362 385/483/362
f 377/470/363 376/469/363 384/485/363 385/483/363
f 384/485/364 376/469/364 378/471/364 386/480/364
f 377/470/365 385/483/365 313/482/365 298/472/365
f 387/375/366 314/374/366 311/385/366 312/387/366
f 388/343/367 179/369/367 196/486/367 389/487/367
f 265/338/368 388/343/368 389/487/368 390/339/368
f 394/488/369 406/489/369 259/330/369 393/329/369
f 406/489/370 394/488/370 395/490/370 396/292/370
f 5/6/371 396/292/371 395/490/371 181/226/371
f 183/230/372 181/229/372 395/491/372 397/492/372
f 395/491/373 394/493/373 398/494/373 397/492/373
f 394/493/374 393/495/374 399/496/374 398/494/374
f 399/496/375 393/495/375 392/497/375 401/498/375
f 391/499/376 401/498/376 392/497/376
f 402/500/377 401/498/377 391/499/377
f 402/500/378 390/501/378 400/502/378 401/498/378
f 400/502/379 390/501/379 389/503/379 403/504/379
f 196/246/380 195/245/380 403/504/380 389/503/380
f 198/249/381 183/230/381 397/492/381 411/505/381
f 411/505/382 397/492/382 398/494/382 405/506/382
f 405/506/383 398/494/383 399/496/383 404/507/383
f 399/496/384 401/498/384 400/502/384 404/507/384
f 405/506/385 404/507/385 400/502/385 403/504/385
f 403/504/386 195/245/386 208/255/386 405/506/386
f 407/508/387 406/489/387 396/292/387 408/291/387
f 407/508/388 408/291/388 409/509/388 410/510/388
f 409/509/389 408/291/389 238/288/389 240/296/389
f 410/510/390 406/489/390 407/508/390
f 410/510/391 409/509/391 259/330/391 406/489/391
f 409/509/392 240/296/392 258/311/392 259/330/392
f 405/506/393 208/255/393 198/249/393 411/505/393
f 15/305/394 235/511/394 295/364/394 243/306/394
f 295/364/395 235/511/395 233/512/395 296/366/395
f 218/513/396 215/514/396 94/371/396 299/373/396
f 222/515/397 220/516/397 297/372/397
f 226/517/398 224/518/398 289/359/398
f 232/519/399 229/520/399 387/375/399 312/387/399
f 387/375/400 229/520/400 228/521/400 292/362/400
f 228/521/401 226/517/401 289/359/401 292/362/401
f 289/359/402 224/518/402 222/515/402 297/372/402 285/351/402
f 299/373/403 297/372/403 220/516/403 218/513/403
f 308/522/404 294/365/404 296/366/404 412/523/404
f 309/386/405 308/522/405 412/523/405 312/387/405
f 296/366/406 233/512/406 232/519/406 412/523/406
f 232/519/407 312/387/407 412/523/407
f 119/136/408 414/524/408 413/137/408
f 413/137/409 414/524/409 415/139/409
f 414/524/410 119/136/410 122/142/410
f 123/144/411 414/524/411 122/145/411
f 415/139/412 414/524/412 123/144/412
f 319/390/413 322/389/413 416/525/413 417/396/413 320/394/413
f 324/392/414 416/525/414 322/389/414
f 417/401/415 416/525/415 418/398/415
f 418/398/416 416/525/416 324/392/416
